dump.vcd
$date
	Sat Jun 27 01:41:55 2026
$end
$version
	Icarus Verilog
$end
$timescale
	1s
$end
$scope module tb $end
$var reg 1 ! clk $end
$var reg 1 " rst $end
$scope module dut $end
$var wire 1 ! clk $end
$var wire 1 " rst $end
$var wire 3 # funct3_E [2:0] $end
$var wire 32 $ WriteDataM [31:0] $end
$var wire 1 % StallF $end
$var wire 1 & StallD $end
$var wire 32 ' ResultW [31:0] $end
$var wire 2 ( ResultSrcW [1:0] $end
$var wire 2 ) ResultSrcM [1:0] $end
$var wire 2 * ResultSrcE [1:0] $end
$var wire 1 + RegWriteW $end
$var wire 1 , RegWriteM $end
$var wire 1 - RegWriteE $end
$var wire 32 . ReadDataW [31:0] $end
$var wire 5 / RS2_E [4:0] $end
$var wire 5 0 RS1_E [4:0] $end
$var wire 5 1 RD_M [4:0] $end
$var wire 5 2 RD_E [4:0] $end
$var wire 5 3 RDW [4:0] $end
$var wire 32 4 RD2_E [31:0] $end
$var wire 32 5 RD1_E [31:0] $end
$var wire 32 6 PredTargetE [31:0] $end
$var wire 32 7 PredTargetD [31:0] $end
$var wire 1 8 PredTakenE $end
$var wire 1 9 PredTakenD $end
$var wire 32 : PCTargetE [31:0] $end
$var wire 1 ; PCSrcE $end
$var wire 32 < PCPlus4W [31:0] $end
$var wire 32 = PCPlus4M [31:0] $end
$var wire 32 > PCPlus4E [31:0] $end
$var wire 32 ? PCPlus4D [31:0] $end
$var wire 32 @ PCE [31:0] $end
$var wire 32 A PCD [31:0] $end
$var wire 1 B MispredictE $end
$var wire 1 C MemWriteM $end
$var wire 1 D MemWriteE $end
$var wire 1 E JumpE $end
$var wire 1 F JalrE $end
$var wire 32 G InstrD [31:0] $end
$var wire 32 H Imm_Ext_E [31:0] $end
$var wire 2 I ForwardBE [1:0] $end
$var wire 2 J ForwardAE [1:0] $end
$var wire 1 K FlushE $end
$var wire 1 L FlushD $end
$var wire 32 M CorrectPCE [31:0] $end
$var wire 1 N BranchTakenE $end
$var wire 1 O BranchE $end
$var wire 32 P ALU_ResultW [31:0] $end
$var wire 32 Q ALU_ResultM [31:0] $end
$var wire 1 R ALUSrcE $end
$var wire 3 S ALUControlE [2:0] $end
$scope module Decode $end
$var wire 3 T ALUControlE [2:0] $end
$var wire 1 R ALUSrcE $end
$var wire 1 O BranchE $end
$var wire 32 U Imm_Ext_E [31:0] $end
$var wire 1 F JalrE $end
$var wire 1 E JumpE $end
$var wire 1 D MemWriteE $end
$var wire 32 V PCE [31:0] $end
$var wire 32 W PCPlus4E [31:0] $end
$var wire 1 8 PredTakenE $end
$var wire 32 X PredTargetE [31:0] $end
$var wire 32 Y RD1_E [31:0] $end
$var wire 32 Z RD2_E [31:0] $end
$var wire 5 [ RD_E [4:0] $end
$var wire 5 \ RS1_E [4:0] $end
$var wire 5 ] RS2_E [4:0] $end
$var wire 1 - RegWriteE $end
$var wire 2 ^ ResultSrcE [1:0] $end
$var wire 1 ! clk $end
$var wire 3 _ funct3_E [2:0] $end
$var wire 1 " rst $end
$var wire 32 ` ResultW [31:0] $end
$var wire 2 a ResultSrcD [1:0] $end
$var wire 1 + RegWriteW $end
$var wire 1 b RegWriteD $end
$var wire 5 c RDW [4:0] $end
$var wire 32 d RD2_D [31:0] $end
$var wire 32 e RD1_D [31:0] $end
$var wire 32 f PredTargetD [31:0] $end
$var wire 1 9 PredTakenD $end
$var wire 32 g PCPlus4D [31:0] $end
$var wire 32 h PCD [31:0] $end
$var wire 1 i MemWriteD $end
$var wire 1 j JumpD $end
$var wire 1 k JalrD $end
$var wire 32 l InstrD [31:0] $end
$var wire 32 m Imm_Ext_D [31:0] $end
$var wire 2 n ImmSrcD [1:0] $end
$var wire 1 K FlushE $end
$var wire 1 o BranchD $end
$var wire 1 p ALUSrcD $end
$var wire 3 q ALUControlD [2:0] $end
$var reg 3 r ALUControlD_r [2:0] $end
$var reg 1 R ALUSrcD_r $end
$var reg 1 O BranchD_r $end
$var reg 32 s Imm_Ext_D_r [31:0] $end
$var reg 1 F JalrD_r $end
$var reg 1 E JumpD_r $end
$var reg 1 t MemWriteD_r $end
$var reg 32 u PCD_r [31:0] $end
$var reg 32 v PCPlus4D_r [31:0] $end
$var reg 1 8 PredTakenD_r $end
$var reg 32 w PredTargetD_r [31:0] $end
$var reg 32 x RD1_D_r [31:0] $end
$var reg 32 y RD2_D_r [31:0] $end
$var reg 5 z RD_D_r [4:0] $end
$var reg 5 { RS1_D_r [4:0] $end
$var reg 5 | RS2_D_r [4:0] $end
$var reg 1 } RegWriteD_r $end
$var reg 2 ~ ResultSrcD_r [1:0] $end
$var reg 3 !" funct3_D_r [2:0] $end
$scope module control $end
$var wire 7 "" Op [6:0] $end
$var wire 3 #" funct3 [2:0] $end
$var wire 7 $" funct7 [6:0] $end
$var wire 2 %" ResultSrc [1:0] $end
$var wire 1 b RegWrite $end
$var wire 1 i MemWrite $end
$var wire 1 j Jump $end
$var wire 1 k Jalr $end
$var wire 2 &" ImmSrc [1:0] $end
$var wire 1 o Branch $end
$var wire 1 p ALUSrc $end
$var wire 2 '" ALUOp [1:0] $end
$var wire 3 (" ALUControl [2:0] $end
$scope module ALU_Decoder $end
$var wire 3 )" funct3 [2:0] $end
$var wire 7 *" funct7 [6:0] $end
$var wire 7 +" op [6:0] $end
$var wire 2 ," ALUOp [1:0] $end
$var wire 3 -" ALUControl [2:0] $end
$upscope $end
$scope module Main_Decoder $end
$var wire 7 ." Op [6:0] $end
$var wire 2 /" ResultSrc [1:0] $end
$var wire 1 b RegWrite $end
$var wire 1 i MemWrite $end
$var wire 1 j Jump $end
$var wire 1 k Jalr $end
$var wire 2 0" ImmSrc [1:0] $end
$var wire 1 o Branch $end
$var wire 1 p ALUSrc $end
$var wire 2 1" ALUOp [1:0] $end
$upscope $end
$upscope $end
$scope module extension $end
$var wire 2 2" ImmSrc [1:0] $end
$var wire 32 3" In [31:0] $end
$var wire 32 4" Imm_Ext [31:0] $end
$upscope $end
$scope module rf $end
$var wire 5 5" A1 [4:0] $end
$var wire 5 6" A2 [4:0] $end
$var wire 1 ! clk $end
$var wire 1 " rst $end
$var wire 1 + WE3 $end
$var wire 32 7" WD3 [31:0] $end
$var wire 32 8" RD2 [31:0] $end
$var wire 32 9" RD1 [31:0] $end
$var wire 5 :" A3 [4:0] $end
$upscope $end
$upscope $end
$scope module Execute $end
$var wire 3 ;" ALUControlE [2:0] $end
$var wire 1 R ALUSrcE $end
$var wire 1 O BranchE $end
$var wire 32 <" Imm_Ext_E [31:0] $end
$var wire 1 F JalrE $end
$var wire 1 E JumpE $end
$var wire 1 D MemWriteE $end
$var wire 1 C MemWriteM $end
$var wire 1 B MispredictE $end
$var wire 32 =" PCE [31:0] $end
$var wire 32 >" PCPlus4E [31:0] $end
$var wire 32 ?" PCPlus4M [31:0] $end
$var wire 1 ; PCSrcE $end
$var wire 1 8 PredTakenE $end
$var wire 32 @" PredTargetE [31:0] $end
$var wire 32 A" RD1_E [31:0] $end
$var wire 32 B" RD2_E [31:0] $end
$var wire 5 C" RD_E [4:0] $end
$var wire 5 D" RD_M [4:0] $end
$var wire 1 - RegWriteE $end
$var wire 1 , RegWriteM $end
$var wire 2 E" ResultSrcE [1:0] $end
$var wire 2 F" ResultSrcM [1:0] $end
$var wire 32 G" WriteDataM [31:0] $end
$var wire 1 ! clk $end
$var wire 3 H" funct3_E [2:0] $end
$var wire 1 " rst $end
$var wire 1 I" ZeroE $end
$var wire 32 J" Src_B_interim [31:0] $end
$var wire 32 K" Src_B [31:0] $end
$var wire 32 L" Src_A [31:0] $end
$var wire 32 M" ResultW [31:0] $end
$var wire 32 N" ResultE [31:0] $end
$var wire 32 O" PCTargetE [31:0] $end
$var wire 32 P" PCBranchTargetE [31:0] $end
$var wire 1 Q" OverFlowE $end
$var wire 1 R" NegativeE $end
$var wire 2 S" ForwardB_E [1:0] $end
$var wire 2 T" ForwardA_E [1:0] $end
$var wire 32 U" CorrectPCE [31:0] $end
$var wire 1 V" CarryE $end
$var wire 1 N BranchTakenE $end
$var wire 32 W" ALU_ResultM [31:0] $end
$var reg 1 X" MemWriteE_r $end
$var reg 32 Y" PCPlus4E_r [31:0] $end
$var reg 32 Z" RD2_E_r [31:0] $end
$var reg 5 [" RD_E_r [4:0] $end
$var reg 1 , RegWriteE_r $end
$var reg 32 \" ResultE_r [31:0] $end
$var reg 2 ]" ResultSrcE_r [1:0] $end
$scope module alu $end
$var wire 3 ^" ALUControl [2:0] $end
$var wire 1 V" Carry $end
$var wire 1 Q" OverFlow $end
$var wire 1 I" Zero $end
$var wire 32 _" Sum [31:0] $end
$var wire 32 `" Result [31:0] $end
$var wire 1 R" Negative $end
$var wire 1 a" Cout $end
$var wire 32 b" B [31:0] $end
$var wire 32 c" A [31:0] $end
$upscope $end
$scope module alu_src_mux $end
$var wire 32 d" b [31:0] $end
$var wire 1 R s $end
$var wire 32 e" c [31:0] $end
$var wire 32 f" a [31:0] $end
$upscope $end
$scope module branch_adder $end
$var wire 32 g" a [31:0] $end
$var wire 32 h" b [31:0] $end
$var wire 32 i" c [31:0] $end
$upscope $end
$scope module srca_mux $end
$var wire 32 j" a [31:0] $end
$var wire 32 k" c [31:0] $end
$var wire 2 l" s [1:0] $end
$var wire 32 m" d [31:0] $end
$var wire 32 n" b [31:0] $end
$upscope $end
$scope module srcb_mux $end
$var wire 32 o" a [31:0] $end
$var wire 32 p" c [31:0] $end
$var wire 2 q" s [1:0] $end
$var wire 32 r" d [31:0] $end
$var wire 32 s" b [31:0] $end
$upscope $end
$upscope $end
$scope module Fetch $end
$var wire 1 O BranchE $end
$var wire 1 N BranchTakenE $end
$var wire 32 t" CorrectPCE [31:0] $end
$var wire 1 B MispredictE $end
$var wire 32 u" PCE [31:0] $end
$var wire 32 v" PCTargetE [31:0] $end
$var wire 1 ! clk $end
$var wire 1 " rst $end
$var wire 1 % StallF $end
$var wire 1 & StallD $end
$var wire 32 w" PredTargetF [31:0] $end
$var wire 32 x" PredTargetD [31:0] $end
$var wire 1 y" PredTakenF $end
$var wire 1 9 PredTakenD $end
$var wire 32 z" PC_Next [31:0] $end
$var wire 32 {" PC_F [31:0] $end
$var wire 32 |" PCPlus4F [31:0] $end
$var wire 32 }" PCPlus4D [31:0] $end
$var wire 32 ~" PCF [31:0] $end
$var wire 32 !# PCD [31:0] $end
$var wire 32 "# InstrF [31:0] $end
$var wire 32 ## InstrD [31:0] $end
$var wire 1 L FlushD $end
$var reg 32 $# InstrF_reg [31:0] $end
$var reg 32 %# PCF_reg [31:0] $end
$var reg 32 &# PCPlus4F_reg [31:0] $end
$var reg 1 '# PredTakenF_reg $end
$var reg 32 (# PredTargetF_reg [31:0] $end
$scope module BP $end
$var wire 1 N ActualTakenE $end
$var wire 32 )# ActualTargetE [31:0] $end
$var wire 1 *# BTB_hitF $end
$var wire 1 y" PredTakenF $end
$var wire 1 O UpdateE $end
$var wire 32 +# UpdatePCE [31:0] $end
$var wire 1 ! clk $end
$var wire 1 " rst $end
$var wire 24 ,# updateTagE [23:0] $end
$var wire 6 -# updateIndexE [5:0] $end
$var wire 24 .# tagF [23:0] $end
$var wire 6 /# indexF [5:0] $end
$var wire 32 0# PredTargetF [31:0] $end
$var wire 32 1# PCPlus4F [31:0] $end
$var wire 32 2# PCF [31:0] $end
$var integer 32 3# i [31:0] $end
$upscope $end
$scope module IMEM $end
$var wire 1 " rst $end
$var wire 32 4# RD [31:0] $end
$var wire 32 5# A [31:0] $end
$upscope $end
$scope module PC_MUX $end
$var wire 32 6# a [31:0] $end
$var wire 32 7# b [31:0] $end
$var wire 1 B s $end
$var wire 32 8# c [31:0] $end
$upscope $end
$scope module PC_adder $end
$var wire 32 9# b [31:0] $end
$var wire 32 :# c [31:0] $end
$var wire 32 ;# a [31:0] $end
$upscope $end
$scope module Program_Counter $end
$var wire 1 ! clk $end
$var wire 1 " rst $end
$var wire 32 <# PC_Next [31:0] $end
$var reg 32 =# PC [31:0] $end
$upscope $end
$scope module STALL_MUX $end
$var wire 32 ># a [31:0] $end
$var wire 32 ?# b [31:0] $end
$var wire 1 % s $end
$var wire 32 @# c [31:0] $end
$upscope $end
$upscope $end
$scope module Forwarding_block $end
$var wire 1 L FlushD $end
$var wire 1 K FlushE $end
$var wire 1 A# LoadUseHazard $end
$var wire 1 B MispredictE $end
$var wire 5 B# RD_E [4:0] $end
$var wire 5 C# RD_M [4:0] $end
$var wire 1 , RegWriteM $end
$var wire 2 D# ResultSrcE [1:0] $end
$var wire 5 E# Rs1_D [4:0] $end
$var wire 5 F# Rs1_E [4:0] $end
$var wire 5 G# Rs2_D [4:0] $end
$var wire 5 H# Rs2_E [4:0] $end
$var wire 1 & StallD $end
$var wire 1 % StallF $end
$var wire 1 " rst $end
$var wire 1 + RegWriteW $end
$var wire 5 I# RD_W [4:0] $end
$var wire 2 J# ForwardBE [1:0] $end
$var wire 2 K# ForwardAE [1:0] $end
$upscope $end
$scope module Memory $end
$var wire 32 L# ALU_ResultM [31:0] $end
$var wire 32 M# ALU_ResultW [31:0] $end
$var wire 1 C MemWriteM $end
$var wire 32 N# PCPlus4M [31:0] $end
$var wire 32 O# PCPlus4W [31:0] $end
$var wire 5 P# RD_M [4:0] $end
$var wire 5 Q# RD_W [4:0] $end
$var wire 32 R# ReadDataW [31:0] $end
$var wire 1 , RegWriteM $end
$var wire 1 + RegWriteW $end
$var wire 2 S# ResultSrcM [1:0] $end
$var wire 2 T# ResultSrcW [1:0] $end
$var wire 32 U# WriteDataM [31:0] $end
$var wire 1 ! clk $end
$var wire 1 " rst $end
$var wire 32 V# ReadDataM [31:0] $end
$var reg 32 W# ALU_ResultM_r [31:0] $end
$var reg 32 X# PCPlus4M_r [31:0] $end
$var reg 5 Y# RD_M_r [4:0] $end
$var reg 32 Z# ReadDataM_r [31:0] $end
$var reg 1 + RegWriteM_r $end
$var reg 2 [# ResultSrcM_r [1:0] $end
$scope module dmem $end
$var wire 32 \# A [31:0] $end
$var wire 32 ]# WD [31:0] $end
$var wire 1 C WE $end
$var wire 1 ! clk $end
$var wire 1 " rst $end
$var wire 32 ^# RD [31:0] $end
$upscope $end
$upscope $end
$scope module WriteBack $end
$var wire 32 _# ALU_ResultW [31:0] $end
$var wire 32 `# PCPlus4W [31:0] $end
$var wire 32 a# ReadDataW [31:0] $end
$var wire 2 b# ResultSrcW [1:0] $end
$var wire 1 ! clk $end
$var wire 1 " rst $end
$var wire 32 c# ResultW [31:0] $end
$scope module result_mux $end
$var wire 32 d# a [31:0] $end
$var wire 32 e# b [31:0] $end
$var wire 32 f# c [31:0] $end
$var wire 2 g# s [1:0] $end
$var wire 32 h# d [31:0] $end
$upscope $end
$upscope $end
$upscope $end
$upscope $end
$enddefinitions $end
$comment Show the parameter values. $end
$dumpall
$end
#0
$dumpvars
b0 h#
b0 g#
b0 f#
b0 e#
b0 d#
b0 c#
b0 b#
b0 a#
b0 `#
b0 _#
b0 ^#
b0 ]#
b0 \#
b0 [#
b0 Z#
b0 Y#
b0 X#
b0 W#
b0 V#
b0 U#
b0 T#
b0 S#
b0 R#
b0 Q#
b0 P#
b0 O#
b0 N#
b0 M#
b0 L#
b0 K#
b0 J#
b0 I#
b0 H#
b0 G#
b0 F#
b0 E#
b0 D#
b0 C#
b0 B#
0A#
bx @#
bx ?#
bx >#
bx =#
bx <#
bx ;#
bx :#
b100 9#
bx 8#
b0 7#
bx 6#
bx 5#
b0 4#
b1000000 3#
bx 2#
bx 1#
bx 0#
bx /#
bx .#
b0 -#
b0 ,#
b0 +#
x*#
b0 )#
b0 (#
0'#
b0 &#
b0 %#
b0 $#
b0 ##
b0 "#
b0 !#
bx ~"
b0 }"
bx |"
bx {"
bx z"
xy"
b0 x"
bx w"
b0 v"
b0 u"
b0 t"
b0 s"
b0 r"
b0 q"
b0 p"
b0 o"
b0 n"
b0 m"
b0 l"
b0 k"
b0 j"
b0 i"
b0 h"
b0 g"
b0 f"
b0 e"
b0 d"
b0 c"
b0 b"
0a"
b0 `"
b0 _"
b0 ^"
b0 ]"
b0 \"
b0 ["
b0 Z"
b0 Y"
0X"
b0 W"
0V"
b0 U"
b0 T"
b0 S"
0R"
0Q"
b0 P"
b0 O"
b0 N"
b0 M"
b0 L"
b0 K"
b0 J"
1I"
b0 H"
b0 G"
b0 F"
b0 E"
b0 D"
b0 C"
b0 B"
b0 A"
b0 @"
b0 ?"
b0 >"
b0 ="
b0 <"
b0 ;"
b0 :"
b0 9"
b0 8"
b0 7"
b0 6"
b0 5"
b0 4"
b0 3"
b0 2"
b0 1"
b0 0"
b0 /"
b0 ."
b0 -"
b0 ,"
b0 +"
b0 *"
b0 )"
b0 ("
b0 '"
b0 &"
b0 %"
b0 $"
b0 #"
b0 ""
b0 !"
b0 ~
0}
b0 |
b0 {
b0 z
b0 y
b0 x
b0 w
b0 v
b0 u
0t
b0 s
b0 r
b0 q
0p
0o
b0 n
b0 m
b0 l
0k
0j
0i
b0 h
b0 g
b0 f
b0 e
b0 d
b0 c
0b
b0 a
b0 `
b0 _
b0 ^
b0 ]
b0 \
b0 [
b0 Z
b0 Y
b0 X
b0 W
b0 V
b0 U
b0 T
b0 S
0R
b0 Q
b0 P
0O
1N
b0 M
0L
0K
b0 J
b0 I
b0 H
b0 G
0F
0E
0D
0C
0B
b0 A
b0 @
b0 ?
b0 >
b0 =
b0 <
0;
b0 :
09
08
b0 7
b0 6
b0 5
b0 4
b0 3
b0 2
b0 1
b0 0
b0 /
b0 .
0-
0,
0+
b0 *
b0 )
b0 (
b0 '
0&
0%
b0 $
b0 #
0"
1!
$end
#50
0!
#100
b100 {"
b100 <#
b100 @#
0y"
b100 z"
b100 8#
b100 >#
0*#
b100 w"
b100 0#
b100 6#
b0 .#
b0 /#
b100 |"
b100 1#
b100 :#
b0 ~"
b0 2#
b0 5#
b0 ;#
b0 =#
b0 ?#
b1000000 3#
1!
#150
0!
#200
b10100000000000010010011 "#
b10100000000000010010011 4#
1"
b1000000 3#
1!
#250
0!
#300
1b
1p
b10 '"
b10 ,"
b10 1"
b1000 {"
b1000 <#
b1000 @#
b101 m
b101 4"
bx d
bx 8"
b1000 z"
b1000 8#
b1000 >#
b101000000000000100010011 "#
b101000000000000100010011 4#
b101 6"
b10011 ""
b10011 +"
b10011 ."
b101 G#
b1000 w"
b1000 0#
b1000 6#
b1 /#
b100 7
b100 f
b100 x"
b100 ?
b100 g
b100 }"
b10100000000000010010011 G
b10100000000000010010011 l
b10100000000000010010011 3"
b10100000000000010010011 ##
b1000 |"
b1000 1#
b1000 :#
b100 ~"
b100 2#
b100 5#
b100 ;#
b100 =#
b100 ?#
b100 (#
b100 &#
b10100000000000010010011 $#
1!
#350
0!
#400
0N
0I"
b101 N"
b101 `"
b1100 {"
b1100 <#
b1100 @#
b101 _"
b1010 m
b1010 4"
b1100 z"
b1100 8#
b1100 >#
b1000001000000110110011 "#
b1000001000000110110011 4#
b101 K"
b101 b"
b101 e"
b1010 6"
b1010 G#
b1100 w"
b1100 0#
b1100 6#
b10 /#
b100 M
b100 U"
b100 t"
b100 7#
b101 :
b101 O"
b101 v"
b101 )#
bx J"
bx f"
bx r"
b1000 7
b1000 f
b1000 x"
b1000 ?
b1000 g
b1000 }"
b100 A
b100 h
b100 !#
b101000000000000100010011 G
b101000000000000100010011 l
b101000000000000100010011 3"
b101000000000000100010011 ##
b1100 |"
b1100 1#
b1100 :#
b1000 ~"
b1000 2#
b1000 5#
b1000 ;#
b1000 =#
b1000 ?#
b101 /
b101 ]
b101 |
b101 H#
b100 >
b100 W
b100 v
b100 >"
b1 2
b1 [
b1 z
b1 C"
b1 B#
b101 P"
b101 i"
b101 H
b101 U
b101 s
b101 <"
b101 d"
b101 h"
bx 4
bx Z
bx y
bx B"
bx o"
b100 6
b100 X
b100 w
b100 @"
1R
1-
1}
b1000 (#
b1000 &#
b100 %#
b101000000000000100010011 $#
1!
#450
0!
#500
1b
0p
b1010 N"
b1010 `"
b10000 {"
b10000 <#
b10000 @#
b10 m
b10 4"
bx e
bx 9"
b10000 z"
b10000 8#
b10000 >#
b1100000010000000100011 "#
b1100000010000000100011 4#
b10 6"
b1 5"
b110011 ""
b110011 +"
b110011 ."
b10 G#
b1 E#
b1010 _"
b10000 w"
b10000 0#
b10000 6#
b11 /#
b1100 7
b1100 f
b1100 x"
b1100 ?
b1100 g
b1100 }"
b1000 A
b1000 h
b1000 !#
b1000001000000110110011 G
b1000001000000110110011 l
b1000001000000110110011 3"
b1000001000000110110011 ##
b1000 M
b1000 U"
b1000 t"
b1000 7#
b1 -#
b1010 K"
b1010 b"
b1010 e"
b1110 :
b1110 O"
b1110 v"
b1110 )#
bx V#
bx ^#
b10000 |"
b10000 1#
b10000 :#
b1100 ~"
b1100 2#
b1100 5#
b1100 ;#
b1100 =#
b1100 ?#
b1100 (#
b1100 &#
b1000 %#
b1000001000000110110011 $#
b1010 /
b1010 ]
b1010 |
b1010 H#
b1000 >
b1000 W
b1000 v
b1000 >"
b100 @
b100 V
b100 u
b100 ="
b100 g"
b100 u"
b100 +#
b10 2
b10 [
b10 z
b10 C"
b10 B#
b1110 P"
b1110 i"
b1010 H
b1010 U
b1010 s
b1010 <"
b1010 d"
b1010 h"
b1000 6
b1000 X
b1000 w
b1000 @"
b101 Q
b101 W"
b101 \"
b101 k"
b101 p"
b101 L#
b101 \#
bx $
bx G"
bx U#
bx ]#
bx Z"
b100 =
b100 ?"
b100 N#
b100 Y"
b1 1
b1 D"
b1 ["
b1 C#
b1 P#
1,
1!
#550
0!
#600
0b
0N
1p
b1 J
b1 T"
b1 l"
b1 K#
0Q"
0R"
0I"
b1010 J"
b1010 f"
b1010 r"
b1111 N"
b1111 `"
b0 '"
b0 ,"
b0 1"
b10100 {"
b10100 <#
b10100 @#
b10 I
b10 S"
b10 q"
b10 J#
b0 m
b0 4"
b0 e
b0 9"
b1 n
b1 &"
b1 0"
b1 2"
1i
b10100 z"
b10100 8#
b10100 >#
b10001000000011 "#
b10001000000011 4#
b1111 _"
b11 6"
b0 5"
b10 #"
b10 )"
b100011 ""
b100011 +"
b100011 ."
b11 G#
b0 E#
b10100 w"
b10100 0#
b10100 6#
b100 /#
b101 '
b101 `
b101 7"
b101 M"
b101 n"
b101 s"
b101 c#
b101 h#
b1100 M
b1100 U"
b1100 t"
b1100 7#
b10 -#
b1010 K"
b1010 b"
b1010 e"
b1010 :
b1010 O"
b1010 v"
b1010 )#
b101 L"
b101 c"
b101 m"
b10000 7
b10000 f
b10000 x"
b10000 ?
b10000 g
b10000 }"
b1100 A
b1100 h
b1100 !#
b1100000010000000100011 G
b1100000010000000100011 l
b1100000010000000100011 3"
b1100000010000000100011 ##
b10100 |"
b10100 1#
b10100 :#
b10000 ~"
b10000 2#
b10000 5#
b10000 ;#
b10000 =#
b10000 ?#
bx .
bx R#
bx Z#
bx a#
bx e#
b101 P
b101 M#
b101 W#
b101 _#
b101 d#
b100 <
b100 O#
b100 X#
b100 `#
b100 f#
b1 3
b1 c
b1 :"
b1 I#
b1 Q#
b1 Y#
1+
b1010 Q
b1010 W"
b1010 \"
b1010 k"
b1010 p"
b1010 L#
b1010 \#
b1000 =
b1000 ?"
b1000 N#
b1000 Y"
b10 1
b10 D"
b10 ["
b10 C#
b10 P#
b10 /
b10 ]
b10 |
b10 H#
b1 0
b1 \
b1 {
b1 F#
b1100 >
b1100 W
b1100 v
b1100 >"
b1000 @
b1000 V
b1000 u
b1000 ="
b1000 g"
b1000 u"
b1000 +#
b11 2
b11 [
b11 z
b11 C"
b11 B#
b1010 P"
b1010 i"
b10 H
b10 U
b10 s
b10 <"
b10 d"
b10 h"
bx 5
bx Y
bx x
bx A"
bx j"
b1100 6
b1100 X
b1100 w
b1100 @"
0R
b10000 (#
b10000 &#
b1100 %#
b1100000010000000100011 $#
1!
#650
0!
#700
1I"
1b
b0 N"
b0 `"
b0 J
b0 T"
b0 l"
b0 K#
b11000 {"
b11000 <#
b11000 @#
b0 d
b0 8"
b0 n
b0 &"
b0 0"
b0 2"
0i
b1 a
b1 %"
b1 /"
b0 _"
b1111 J"
b1111 f"
b1111 r"
b0 L"
b0 c"
b0 m"
b11000 z"
b11000 8#
b11000 >#
b100100000001010110011 "#
b100100000001010110011 4#
b0 6"
b11 ""
b11 +"
b11 ."
b0 G#
b0 K"
b0 b"
b0 e"
b11000 w"
b11000 0#
b11000 6#
b101 /#
b10100 7
b10100 f
b10100 x"
b10100 ?
b10100 g
b10100 }"
b10000 A
b10000 h
b10000 !#
b10001000000011 G
b10001000000011 l
b10001000000011 3"
b10001000000011 ##
b10000 M
b10000 U"
b10000 t"
b10000 7#
b11 -#
b1100 :
b1100 O"
b1100 v"
b1100 )#
b1010 '
b1010 `
b1010 7"
b1010 M"
b1010 n"
b1010 s"
b1010 c#
b1010 h#
b11000 |"
b11000 1#
b11000 :#
b10100 ~"
b10100 2#
b10100 5#
b10100 ;#
b10100 =#
b10100 ?#
b10100 (#
b10100 &#
b10000 %#
b10001000000011 $#
b11 /
b11 ]
b11 |
b11 H#
b0 0
b0 \
b0 {
b0 F#
b10000 >
b10000 W
b10000 v
b10000 >"
b1100 @
b1100 V
b1100 u
b1100 ="
b1100 g"
b1100 u"
b1100 +#
b0 2
b0 [
b0 z
b0 C"
b0 B#
b1100 P"
b1100 i"
b0 H
b0 U
b0 s
b0 <"
b0 d"
b0 h"
b0 5
b0 Y
b0 x
b0 A"
b0 j"
b10000 6
b10000 X
b10000 w
b10000 @"
b10 #
b10 _
b10 !"
b10 H"
1D
1t
1R
0-
0}
b1111 Q
b1111 W"
b1111 \"
b1111 k"
b1111 p"
b1111 L#
b1111 \#
b1010 $
b1010 G"
b1010 U#
b1010 ]#
b1010 Z"
b1100 =
b1100 ?"
b1100 N#
b1100 Y"
b11 1
b11 D"
b11 ["
b11 C#
b11 P#
b1010 P
b1010 M#
b1010 W#
b1010 _#
b1010 d#
b1000 <
b1000 O#
b1000 X#
b1000 `#
b1000 f#
b10 3
b10 c
b10 :"
b10 I#
b10 Q#
b10 Y#
1!
#750
0!
#800
0p
1K
b0 I
b0 S"
b0 q"
b0 J#
b10 '"
b10 ,"
b10 1"
1%
1&
1A#
b11000 {"
b11000 <#
b11000 @#
b0 J"
b0 f"
b0 r"
b0 J
b0 T"
b0 l"
b0 K#
b1 m
b1 4"
b101 d
b101 8"
bx e
bx 9"
b0 a
b0 %"
b0 /"
b11100 z"
b11100 8#
b11100 >#
b10100101000010001100011 "#
b10100101000010001100011 4#
b1 6"
b100 5"
b0 #"
b0 )"
b110011 ""
b110011 +"
b110011 ."
b1 G#
b100 E#
b11100 w"
b11100 0#
b11100 6#
b110 /#
b1111 '
b1111 `
b1111 7"
b1111 M"
b1111 n"
b1111 s"
b1111 c#
b1111 h#
b0 V#
b0 ^#
b10100 M
b10100 U"
b10100 t"
b10100 7#
b10000 :
b10000 O"
b10000 v"
b10000 )#
b100 -#
b11000 7
b11000 f
b11000 x"
b11000 ?
b11000 g
b11000 }"
b10100 A
b10100 h
b10100 !#
b100100000001010110011 G
b100100000001010110011 l
b100100000001010110011 3"
b100100000001010110011 ##
b11100 |"
b11100 1#
b11100 :#
b11000 ~"
b11000 2#
b11000 5#
b11000 ;#
b11000 =#
b11000 ?#
b1111 P
b1111 M#
b1111 W#
b1111 _#
b1111 d#
b1100 <
b1100 O#
b1100 X#
b1100 `#
b1100 f#
b11 3
b11 c
b11 :"
b11 I#
b11 Q#
b11 Y#
b0 Q
b0 W"
b0 \"
b0 k"
b0 p"
b0 L#
b0 \#
b1111 $
b1111 G"
b1111 U#
b1111 ]#
b1111 Z"
b10000 =
b10000 ?"
b10000 N#
b10000 Y"
b0 1
b0 D"
b0 ["
b0 C#
b0 P#
1C
1X"
0,
b0 /
b0 ]
b0 |
b0 H#
b10100 >
b10100 W
b10100 v
b10100 >"
b10000 P"
b10000 i"
b10000 @
b10000 V
b10000 u
b10000 ="
b10000 g"
b10000 u"
b10000 +#
b100 2
b100 [
b100 z
b100 C"
b100 B#
b0 4
b0 Z
b0 y
b0 B"
b0 o"
b10100 6
b10100 X
b10100 w
b10100 @"
b1 *
b1 ^
b1 ~
b1 E"
b1 D#
0D
0t
1-
1}
b11000 (#
b11000 &#
b10100 %#
b100100000001010110011 $#
1!
#850
0!
#900
b11100 {"
b11100 <#
b11100 @#
0K
0%
0&
0A#
b1111 V#
b1111 ^#
b0 M
b0 U"
b0 t"
b0 7#
b0 :
b0 O"
b0 v"
b0 )#
b0 -#
1N
b0 '
b0 `
b0 7"
b0 M"
b0 n"
b0 s"
b0 c#
b0 h#
b0 >
b0 W
b0 v
b0 >"
b0 P"
b0 i"
b0 @
b0 V
b0 u
b0 ="
b0 g"
b0 u"
b0 +#
b0 2
b0 [
b0 z
b0 C"
b0 B#
b0 6
b0 X
b0 w
b0 @"
b0 #
b0 _
b0 !"
b0 H"
b0 *
b0 ^
b0 ~
b0 E"
b0 D#
0R
0-
0}
b0 $
b0 G"
b0 U#
b0 ]#
b0 Z"
b10100 =
b10100 ?"
b10100 N#
b10100 Y"
b100 1
b100 D"
b100 ["
b100 C#
b100 P#
b1 )
b1 F"
b1 S#
b1 ]"
0C
0X"
1,
b0 .
b0 R#
b0 Z#
b0 a#
b0 e#
b0 P
b0 M#
b0 W#
b0 _#
b0 d#
b10000 <
b10000 O#
b10000 X#
b10000 `#
b10000 f#
b0 3
b0 c
b0 :"
b0 I#
b0 Q#
b0 Y#
0+
1!
#950
0!
